Project 1: Risk Factors for Heart Failure
…
3. Wrangling

heart %>% group_by(DEATHEVENT) %>% select(-ID) %>% summarize_if(is.numeric, 
    c(mean = mean, sd = sd, min = min, max = max)) %>% pivot_longer(-DEATHEVENT) %>% 
    separate(name, into = c("riskfactor", "stat"))

## # A tibble: 48 x 4
##    DEATHEVENT riskfactor              stat      value
##    <chr>      <chr>                   <chr>     <dbl>
##  1 No         age                     mean      58.8 
##  2 No         creatininephosphokinase mean     540.  
##  3 No         ejectionfraction        mean      40.3 
##  4 No         platelets               mean  266657.  
##  5 No         serumcreatinine         mean       1.18
##  6 No         serumsodium             mean     137.  
##  7 No         age                     sd        10.6 
##  8 No         creatininephosphokinase sd       754.  
##  9 No         ejectionfraction        sd        10.9 
## 10 No         platelets               sd     97531.  
## # … with 38 more rows

heart %>% group_by(highbloodpressure) %>% select(-ID) %>% summarize_if(is.numeric, 
    c(mean = mean, sd = sd, min = min, max = max)) %>% pivot_longer(-highbloodpressure) %>% 
    separate(name, into = c("riskfactor", "stat"))

## # A tibble: 48 x 4
##    highbloodpressure riskfactor              stat      value
##    <chr>             <chr>                   <chr>     <dbl>
##  1 No                age                     mean      60.0 
##  2 No                creatininephosphokinase mean     632.  
##  3 No                ejectionfraction        mean      37.9 
##  4 No                platelets               mean  259769.  
##  5 No                serumcreatinine         mean       1.40
##  6 No                serumsodium             mean     137.  
##  7 No                age                     sd        12.0 
##  8 No                creatininephosphokinase sd      1019.  
##  9 No                ejectionfraction        sd        11.5 
## 10 No                platelets               sd    104292.  
## # … with 38 more rows
…
